<?xml version="1.0" encoding="UTF-8" standalone="no"?>
<svg width="656px" height="602px" viewBox="0 0 656 602" version="1.1" xmlns="http://www.w3.org/2000/svg" xmlns:xlink="http://www.w3.org/1999/xlink">
    <!-- Generator: sketchtool 50.2 (55047) - http://www.bohemiancoding.com/sketch -->
    <title>73AEC6BB-9522-47F6-9BC8-E3EE53B7F9DC@1x</title>
    <desc>Created with sketchtool.</desc>
    <defs></defs>
    <g id="Page-1" stroke="none" stroke-width="1" fill="none" fill-rule="evenodd">
        <g id="404-page" transform="translate(-614.000000, -132.000000)">
            <g id="Group-4" transform="translate(614.000000, 132.000000)">
                <g id="Group" fill-rule="nonzero">
                    <g id="Ресурс-1" fill="#E9EDEF">
                        <path d="M264.845483,115.734344 C288.715617,91.9544809 307.064767,61.4961555 334.263729,40.0505117 C401.408629,-13.052987 501.38714,-11.7399884 569.0679,39.5480061 C594.951569,59.1619357 615.996258,85.6812654 626.680984,116.301689 C637.365711,146.922113 637.219567,181.676052 623.839302,211.242835 C611.530757,238.410559 588.683629,260.812584 581.7824,289.828232 C572.461681,329.072301 593.993516,367.26273 614.339963,399.179942 C639.866392,439.218295 667.552499,480.229238 649.528112,529.57205 C629.58762,584.215485 566.031359,607.103806 511.77958,599.76074 C473.051506,594.524956 438.236835,573.824966 410.729347,546.77071 C383.22186,519.716455 368.201538,491.008795 332.266432,473.599406 C286.572176,451.456738 234.545028,447.890569 184.904893,441.957761 C139.616592,436.543668 91.194321,432.069747 55.7301225,400.006645 C37.3322577,383.37533 24.974998,361.102983 15.7841847,338.068773 C-3.50678041,289.763393 -8.47566536,241.166235 20.1684949,196.119036 C36.0981555,171.074804 60.7639602,146.062991 90.75589,139.562837 C131.838501,130.679835 168.423134,159.922421 211.405613,148.348581 C233.473308,142.383353 250.198639,130.323218 264.845483,115.734344 Z" id="Shape"></path>
                    </g>
                    <g id="Ресурс-3" transform="translate(121.000000, 495.000000)" fill="#D1DBE2" opacity="0.400000006">
                        <path d="M196.674926,45.0297647 C208.468817,54.3462677 222.212631,71.8457659 217.746678,88.3049213 C211.598129,110.944024 183.324241,108.41304 167.426076,98.1183045 C145.174935,83.7553623 131.258144,65.2931588 103.283035,60.0759171 C73.6567805,54.5325978 40.2250308,62.5758454 14.9074782,46.3961851 C-0.92778609,36.3654169 -7.28076203,14.6579648 11.6838147,4.65825152 C28.4940406,-4.25453639 53.3241124,2.12726819 71.2508267,4.2855914 C115.234177,9.53388811 161.088826,16.971563 196.674926,45.0297647 Z" id="Shape"></path>
                    </g>
                    <g id="Ресурс-2" transform="translate(122.000000, 20.000000)" fill="#D1DBE2" opacity="0.400000006">
                        <path d="M56.2156579,93.8903333 C90.7875329,93.812 128.223257,79.3673333 144.172204,49.4596667 C160.880625,18.1576667 116.41977,2.115 91.8792763,0.266333333 C61.674375,-2.021 18.7324671,10.481 4.36575658,39.433 C-1.88407895,51.9663333 -1.12460526,70.9073333 9.66625,80.934 C15.4730592,86.3233333 23.1310855,89.3783333 30.8998684,91.133 C39.206901,92.9917828 47.6991933,93.9167424 56.2156579,93.8903333 Z" id="Shape"></path>
                    </g>
                </g>
                <g id="Group-2" transform="translate(157.000000, 104.000000)">
                    <g id="Group-5" transform="translate(246.000000, 0.000000)" font-family="IBMPlexSans-Medium, IBM Plex Sans" font-size="200" font-weight="400">
                        <text id="4" fill="#39439D">
                            <tspan x="3.93442623" y="210.136364">4</tspan>
                        </text>
                        <text id="4" fill="#B198D5">
                            <tspan x="6.06557377" y="205.863636">4</tspan>
                        </text>
                    </g>
                    <g id="Group-5" font-family="IBMPlexSans-Medium, IBM Plex Sans" font-size="200" font-weight="400">
                        <text id="4" fill="#39439D">
                            <tspan x="3.93442623" y="210.136364">4</tspan>
                        </text>
                        <text id="4" fill="#B198D5">
                            <tspan x="6.06557377" y="205.863636">4</tspan>
                        </text>
                    </g>
                    <g id="Ресурс-1" transform="translate(88.000000, 103.000000)">
                        <polygon id="Shape" fill="#7352A1" fill-rule="nonzero" points="159.694746 68.1736044 179.305341 45.7029464 180.588571 37.4485786 173.235582 30.43041 93.9901993 26.6826923 35.4890626 27.1286629 21.0428796 34.4832654 20.3028571 38.7004258 29.6003733 60.7798816 96.9817794 88.5865385"></polygon>
                        <path d="M86.5542857,78.1776949 C88.1164057,76.2137798 91.076623,73.9716433 100.613365,74.2662306 C100.9336,74.8390392 100.816441,75.2727371 101.167918,75.2563712 C101.519395,75.2400052 101.542827,74.9699669 101.550637,74.4871711 C101.558448,74.0043753 104.901385,73.5379454 107.119595,73.3742858 C109.337805,73.2106262 114.313157,72.7932943 114.930195,73.2351752 C115.344597,73.5502152 115.5957,74.0491495 115.609717,74.5853668 C115.820603,74.12712 115.609717,73.3824688 116.023679,73.1287964 C116.43764,72.8751241 122.381507,70.3138514 126.833549,71.9258984 C127.614609,70.6575366 128.395669,69.4710045 128.981464,69.2255151 C129.567259,68.9800257 135.323671,66.7706212 136.62023,67.7034809 C137.823138,68.7350515 138.627957,70.1888278 138.885304,71.7949707 C139.127433,70.8621111 138.549448,68.2271916 139.830387,67.8344086 C141.111325,67.4416255 144.891655,66.6233276 146.727146,68.0389831 C148.562637,69.4546385 148.531395,72.1877538 148.531395,72.1877538 L86.7495507,81.1153846 L86.5542857,78.1776949 Z" id="Shape" fill="#FFFFFF" fill-rule="nonzero"></path>
                        <path d="M115.405714,77.3423211 C113.842812,75.5284066 110.881112,73.4575209 101.339594,73.729608 C101.027014,74.2586664 101.136417,74.6592392 100.784764,74.6441233 C100.433111,74.6290073 100.409667,74.3795941 100.401853,73.9336734 C100.394038,73.4877528 97.0494273,73.0569481 94.8301061,72.9057885 C92.6107849,72.754629 87.6329413,72.3691721 87.0155949,72.7773029 C86.6019085,73.0690539 86.3509378,73.5294074 86.3357324,74.0243691 C86.1247406,73.6011224 86.3357324,72.9133465 85.9215633,72.6790492 C85.5073942,72.4447519 79.5605511,70.0791051 75.1062797,71.5680266 C74.3248286,70.3965401 73.5433774,69.3006334 72.9572891,69.0738941 C72.3712008,68.8471548 66.611906,66.806501 65.3146971,67.6681104 C64.1111869,68.6208913 63.3059644,69.9636305 63.0484888,71.4470989 C62.806239,70.5854895 63.3845128,68.1518209 62.102933,67.789038 C60.8213531,67.4262551 57.0391297,66.6704574 55.2027195,67.9779874 C53.3663094,69.2855175 53.4288255,71.8023239 53.4288255,71.8023239 L115.24161,80.0480769 L115.405714,77.3423211 Z" id="Shape" fill="#FFFFFF" fill-rule="nonzero"></path>
                        <path d="M145.325714,34.246335 C145.325714,37.7636959 144.093543,40.8433408 136.984863,40.8433408 C129.876184,40.8433408 128.596621,39.2800693 128.154303,38.4984335 C127.57771,40.2492976 127.36445,44.3294362 124.623659,45.2673992 C120.753378,46.5805472 116.859401,45.5018899 114.395059,44.9938266 C111.930716,44.4857634 107.096814,44.9312958 104.506095,44.9312958 C102.855302,44.9312958 102.373491,43.5868823 101.931174,42.96939 C101.528348,43.7510258 101.267697,44.8140504 99.0166149,44.8140504 C96.765533,44.8140504 90.6283728,44.477947 88.6853337,44.8140504 C86.7422945,45.1501538 83.7013593,45.7285643 81.845204,45.5956862 C77.8671088,44.945216 74.9978767,41.469653 75.147248,37.482307 C75.0398887,38.6257815 74.7099869,39.7379014 74.1757284,40.7573608 C73.6939179,41.4139349 69.5866807,42.7270829 66.6247308,42.6801848 C63.6627809,42.6332867 58.9394581,40.6791973 58.7814875,37.2712654 C58.5603285,33.175494 62.0593787,22.3576551 62.0593787,22.3576551 C62.0593787,22.3576551 100.920161,18.1993529 101.101828,18.1446384 C101.283494,18.0899239 142.774488,23.5613742 142.774488,23.5613742 L145.325714,34.246335 Z" id="Shape" fill="#FFFFFF" fill-rule="nonzero"></path>
                        <path d="M181.644642,33.422664 C169.769919,18.1730797 131.16136,0 118.768295,0 C110.349179,0 106.500889,3.00250882 100.97977,3.38967444 C95.4507986,3.00250882 91.6103622,0 83.191246,0 C70.7667666,0 32.2053294,18.1730797 20.3148985,33.422664 C20.2177586,34.510276 20.71365,35.5655301 21.6107513,36.1802313 C23.1814819,37.3259255 59.4417987,28.9979142 71.4971564,28.9979142 C76.0444216,28.9979142 91.3511916,30.1278056 99.3226496,30.3964512 C99.4797227,30.3964512 102.464111,30.3964512 102.644745,30.3964512 C110.616203,30.1278056 125.922973,28.9979142 130.470238,28.9979142 C142.525596,28.9979142 178.80162,37.3259255 180.356643,36.1802313 C181.250765,35.563622 181.743488,34.5087161 181.644642,33.422664 Z" id="Shape" fill="#7352A1" fill-rule="nonzero"></path>
                        <path d="M178.814241,42.9966485 C173.222679,53.0087807 148.783151,75.1225335 100.98,75.1225335 C53.1768492,75.1225335 28.7294681,53.0087807 23.1457585,42.9966485 C21.8421076,40.6697182 20.3028571,33.3169349 20.3028571,40.2818965 C22.2112136,66.7724944 58.7448521,111 100.917173,111 L100.98,110.889194 L101.042827,111 C143.215148,111 179.748786,66.7724944 181.657143,40.2818965 C181.657143,33.3169349 180.110039,40.6697182 178.814241,42.9966485 Z" id="Shape" fill="#7352A1" fill-rule="nonzero"></path>
                        <path d="M41.3331772,37.6310567 C43.5723213,36.4586897 46.0530926,35.8241099 48.5793303,35.7774952 C52.0094891,36.0330291 55.4166679,36.5370079 58.7741344,37.2854774 C62.2952629,38.1572796 68.1063013,39.7830729 70.5373699,40.6941455 C72.9684386,41.605218 74.2074994,43.4901957 77.3286779,44.1892083 C80.4498564,44.8882209 97.8202342,43.4038009 97.8202342,43.4038009 L112.27333,44.1106676 C112.430173,44.1106676 120.554647,45.8699801 120.554647,45.8699801 C120.554647,45.8699801 127.612589,46.7339282 128.702649,46.3255164 C129.792708,45.9171046 139.948302,43.5451743 141.814735,42.8461617 C143.681168,42.1471491 153.311337,37.1676663 154.699399,36.4215293 C156.087461,35.6753923 162.486661,32.2981405 164.196251,31.3556516 C165.905841,30.4131628 172.571675,26.9023918 174.391055,25.0723926 C176.210436,23.2423934 179.543353,20.8547549 180.91573,19.4253135 C182.288107,17.995872 183.989856,16.3308084 185.448497,16.0559158 C186.907138,15.7810232 187.377667,16.7313661 186.687558,18.8755283 C185.746267,21.5597679 184.986474,24.304427 184.413332,27.0908895 C183.765016,30.2344317 182.513233,33.2219368 180.727518,35.8874523 C178.504802,38.9142656 176.053468,41.7658099 173.395101,44.4169765 C172.305042,45.3437572 169.215232,49.7263304 165.105941,52.8679599 C160.996651,56.0095895 150.143106,61.169716 146.394555,62.6698441 C142.646004,64.1699722 137.666234,66.8953358 135.188112,67.7435758 C132.709991,68.5918158 124.742359,69.4871802 122.96219,69.8563216 C121.18202,70.2254631 117.080572,72.3225008 113.755497,72.550269 C110.430423,72.7780371 95.4911136,71.4742609 92.6522527,71.3643038 C89.8133919,71.2543468 75.8543524,70.9873083 72.5057513,70.0683816 C69.7417186,69.3089558 67.0368096,68.3481989 64.4126453,67.1937906 C63.3539541,66.6675677 60.6954629,67.0916877 59.0093991,66.6282973 C57.3233354,66.1649069 54.7824765,63.5887707 53.3473617,63.3531485 C51.912247,63.1175263 41.7958644,62.7405307 38.7844762,54.902165 C35.7730879,47.0637993 38.1571036,39.1940173 41.3331772,37.6310567 Z" id="Shape" fill="#FFB083" fill-rule="nonzero"></path>
                        <path d="M45.004412,36.9323172 C42.2389588,37.4046333 36.5278672,38.9496671 34.2324628,38.813576 C31.0988048,38.6294528 18.885373,34.1224371 14.2005544,33.3539228 C10.8162038,32.8015532 2.90371751,32.9456497 0.984352024,35.3312459 C-0.935013465,37.7168422 0.294947277,40.1344598 1.76776651,40.3666152 C3.24058574,40.5987705 2.8488785,40.0784223 1.98712257,39.6541384 C0.373288725,38.8536028 0.906010575,36.1958244 3.27192232,35.5634012 C6.67717745,34.7959261 10.2384213,35.2866196 13.3231302,36.9483279 C17.1931977,39.1898278 18.2429731,39.6701492 21.8780163,41.9836972 C25.6018985,44.5372501 28.9428255,47.6302918 31.7960437,51.1658412 C34.0052726,53.9436999 38.9877887,60.972403 41.7845784,61.7409172 C44.5813681,62.5094314 43.5002561,60.3960173 41.5887248,58.8109567 C39.6771935,57.2258961 40.6486274,52.82295 42.7090075,52.4707143 C44.7693876,52.1184786 43.492422,51.2619055 42.5758271,50.6374876 C40.8288127,49.4446895 40.7034664,45.0337381 43.0458757,44.3292667 C45.3882851,43.6247953 43.8841292,42.7281954 43.1007148,42.0077133 C42.3173003,41.2872312 42.6620026,38.477351 44.9887437,38.1731475 C46.30488,37.9970296 46.2265386,36.7161726 45.004412,36.9323172 Z" id="Shape" fill="#637280" fill-rule="nonzero"></path>
                        <path d="M130.519767,28.8173077 C125.947691,28.8173077 110.557403,29.9259849 102.54245,30.1895865 C102.38452,30.1895865 99.3838485,30.1895865 99.2022288,30.1895865 C91.1872763,29.9259849 75.8048847,28.8173077 71.2091188,28.8173077 C67.4421596,28.9326907 63.6864295,29.2822753 59.9644957,29.863961 C59.2774998,32.6550365 58.6931584,35.5779128 58.78002,37.299076 C58.9379501,40.7103905 63.66006,42.6176254 66.6212494,42.6641433 C69.5824388,42.7106613 73.6807248,41.4081594 74.1703081,40.7569084 C74.7099189,39.7468238 75.0451152,38.6436666 75.1573713,37.5084067 C74.9928224,41.4800573 77.8736397,44.9474152 81.8694005,45.5870196 C83.7250791,45.7420794 86.7652335,45.1761113 88.7077738,44.8117209 C90.650314,44.4473304 96.7858983,44.8117209 99.0364022,44.8117209 C101.286906,44.8117209 101.531698,43.7805735 101.942316,43.0052748 C102.38452,43.6100078 102.866207,44.9512746 104.516577,44.9512746 C107.10663,44.9512746 112.018256,44.5171073 114.403001,45.0132985 C116.787745,45.5094897 120.720205,46.563896 124.628975,45.2846531 C127.384855,44.3542946 127.582268,40.2994821 128.158713,38.5705659 C128.600917,39.3458647 129.880151,40.8964622 136.987005,40.8964622 C144.09386,40.8964622 145.325714,37.8417851 145.325714,34.3529408 L144.346548,30.2903753 C139.775746,29.5005433 135.156735,29.0084464 130.519767,28.8173077 Z" id="Shape" fill="#FFFFFF" fill-rule="nonzero"></path>
                        <path d="M75.1284939,82.2047418 L75.769207,82.3268976 C76.1676993,82.4083348 76.8084124,82.5712092 77.5272613,82.7177962 C78.2461101,82.8643832 79.0899762,83.0191139 80.0823002,83.1819884 C81.0746241,83.3448628 82.1841517,83.5321684 83.3874422,83.7031865 C84.5907327,83.8742047 85.8955996,84.0370791 87.2942295,84.1673787 C88.6928593,84.2976782 90.1227435,84.419834 91.6151362,84.5419899 L93.8967,84.6804331 L96.2407724,84.7944452 C97.8034873,84.8433076 99.4130836,84.9003136 100.991426,84.9003136 L102.179089,84.9003136 L103.288617,84.9003136 L105.632689,84.7944452 C107.195404,84.6885768 108.758119,84.6071396 110.266139,84.4768401 C111.774159,84.3465405 113.235297,84.2243847 114.626113,84.0859414 C116.01693,83.9474982 117.32961,83.8090549 118.532901,83.6461805 C119.736191,83.4833061 120.876973,83.3367191 121.85367,83.1819884 C122.345925,83.1086949 122.806926,83.0191139 123.2523,82.9621079 L124.439963,82.7340837 C125.174439,82.6119278 125.729203,82.4734846 126.135509,82.4001911 L126.752781,82.286179 L126.81529,82.286179 C127.308793,82.1950205 127.80483,82.4322268 128.060387,82.8815889 C128.315945,83.3309509 128.277499,83.8983534 127.963885,84.3058219 C127.963885,84.3058219 127.815427,84.4931275 127.518511,84.8351638 C127.093346,85.3358294 126.639318,85.8090414 126.158949,86.2521714 C125.85422,86.5372016 125.502609,86.8466631 125.119744,87.1805556 C124.736879,87.5144482 124.291505,87.8076222 123.830504,88.1659459 C122.780558,88.9143436 121.687171,89.5942871 120.556616,90.2018763 C119.227805,90.9107333 117.860749,91.5388498 116.462303,92.083076 C115.720014,92.37625 114.954283,92.6205616 114.165112,92.8974482 C113.375941,93.1743347 112.56333,93.3860715 111.735091,93.5978082 C110.026481,94.0455526 108.294086,94.3881804 106.546877,94.6239171 C105.648316,94.7542167 104.749755,94.8600851 103.804313,94.9170911 L102.350988,94.9903846 L101.710275,94.9903846 L100.928917,94.9903846 C99.1003519,94.9685665 97.2743656,94.8407842 95.4594149,94.6076297 C94.5608538,94.5017613 93.6779199,94.3470306 92.8027996,94.1841562 C91.9276792,94.0212817 91.0759996,93.8258324 90.2321335,93.6222394 C89.3882675,93.4186464 88.5678421,93.1987659 87.7786711,92.9137356 C86.9895001,92.6287054 86.2159562,92.4088249 85.4345987,92.0993635 C84.0295361,91.5562227 82.6593475,90.9197056 81.3324721,90.1937326 C80.218097,89.5630353 79.145263,88.8556806 78.1210929,88.076365 C77.3049154,87.4832538 76.522257,86.8415476 75.7770206,86.1544467 C75.1519346,85.6006737 74.7925102,85.1039066 74.4799672,84.7944452 L74.042407,84.2895345 C73.6947692,83.8870137 73.6322314,83.2982196 73.8869807,82.826196 C74.14173,82.3541725 74.6569892,82.1041219 75.1675618,82.2047418 L75.1284939,82.2047418 Z" id="Shape" fill="#FFFFFF" fill-rule="nonzero"></path>
                        <path d="M56.255039,18.364458 L57.0323069,17.7969922 C57.2888054,17.6182016 57.5841672,17.4005434 57.9650285,17.1517913 L59.2242026,16.3200263 C59.6905634,16.0090861 60.1880149,15.7136929 60.7243298,15.3794322 C61.2606447,15.0451714 61.8202776,14.6953637 62.4187739,14.361103 L64.2842171,13.3116798 L66.227387,12.2855772 C66.8802921,11.9357695 67.5409698,11.6015088 68.2094203,11.2983421 L70.1603629,10.388842 C70.7977226,10.0934488 71.4350824,9.86024366 72.0335787,9.6114915 L73.7280229,8.92742307 L77.365637,7.7069828 C79.03086,7.14834752 80.8688853,7.60062571 82.0848277,8.86822197 C83.30077,10.1358182 83.6763826,11.9912145 83.0492253,13.6320132 C82.422068,15.2728118 80.9047079,16.4045095 79.1533533,16.5376844 L78.9046275,16.5376844 L75.6478748,16.7708895 L74.0544754,16.9807742 C73.4870698,17.0662827 72.8808008,17.1206973 72.2589864,17.2372998 L70.3391345,17.5948811 C69.6784568,17.7037101 69.017779,17.8591802 68.3571012,18.0146503 L66.3672952,18.4810606 L64.4474433,19.009659 C63.8178563,19.1729026 63.2271326,19.3672402 62.659727,19.5382573 C62.0923214,19.7092744 61.5404611,19.872518 61.1051911,20.0435351 L59.7838355,20.4943984 C59.3952015,20.6187745 59.0065676,20.7742446 58.7422965,20.8753001 L57.8328929,21.2251079 C57.053935,21.5410009 56.1620881,21.219886 55.7632216,20.47991 C55.3643551,19.7399341 55.5863333,18.8183106 56.278357,18.3411375 L56.255039,18.364458 Z" id="Shape" fill="#FFFFFF" fill-rule="nonzero"></path>
                        <ellipse id="Oval" fill="#FFFFFF" fill-rule="nonzero" cx="90.8285714" cy="13.875" rx="5.34285714" ry="5.33653846"></ellipse>
                        <path d="M54.4971429,49.0961538 C60.0676589,51.3286599 65.7821911,53.1123393 71.5942857,54.4326923" id="Shape" stroke="#FFFFFF" stroke-width="5.53" stroke-linecap="round" stroke-linejoin="round"></path>
                        <path d="M79.0742857,55.5 C80.7545222,55.8582571 83.5696552,56.246369 86.5542857,56.5673077" id="Shape" stroke="#FFFFFF" stroke-width="5.53" stroke-linecap="round" stroke-linejoin="round"></path>
                        <path d="M170.971429,35.2211538 C172.502157,34.1124776 174.890414,32.0936941 177.382857,29.8846154" id="Shape" stroke="#FFFFFF" stroke-width="5.53" stroke-linecap="round" stroke-linejoin="round"></path>
                        <ellipse id="Oval" fill="#FFFFFF" fill-rule="nonzero" cx="166.697143" cy="39.4903846" rx="2.13714286" ry="2.13461538"></ellipse>
                    </g>
                </g>
            </g>
        </g>
    </g>
</svg>