<svg viewBox="0 0 25.976229 25.976603" xmlns="http://www.w3.org/2000/svg">
  <path
    d="M25.896 11.546c-.041-.365-.467-.64-.835-.64a2.885 2.885 0 0 1-2.69-1.78 2.893 2.893 0 0 1 .726-3.211.721.721 0 0 0 .08-.98 12.853 12.853 0 0 0-2.058-2.077.723.723 0 0 0-.987.08c-.775.857-2.165 1.176-3.24.727a2.885 2.885 0 0 1-1.754-2.82.72.72 0 0 0-.638-.758 12.967 12.967 0 0 0-2.922-.008.723.723 0 0 0-.643.743 2.89 2.89 0 0 1-1.778 2.77c-1.062.435-2.443.119-3.216-.731a.724.724 0 0 0-.98-.082c-.778.61-1.486 1.31-2.101 2.077a.723.723 0 0 0 .077.987 2.878 2.878 0 0 1 .727 3.24c-.45 1.069-1.557 1.757-2.827 1.757a.706.706 0 0 0-.75.638c-.114.975-.115 1.97-.005 2.953.04.367.48.639.85.639 1.132-.03 2.218.67 2.674 1.78a2.888 2.888 0 0 1-.726 3.212.722.722 0 0 0-.08.978 12.9 12.9 0 0 0 2.055 2.08c.298.24.73.205.989-.08.777-.86 2.168-1.177 3.238-.727a2.88 2.88 0 0 1 1.757 2.819.721.721 0 0 0 .638.758 12.91 12.91 0 0 0 2.922.008.723.723 0 0 0 .643-.744 2.887 2.887 0 0 1 1.777-2.77c1.069-.436 2.444-.116 3.217.733.256.279.68.313.98.08a12.931 12.931 0 0 0 2.1-2.076.721.721 0 0 0-.076-.987 2.878 2.878 0 0 1-.728-3.24 2.908 2.908 0 0 1 2.657-1.761l.16.004a.723.723 0 0 0 .76-.637 13 13 0 0 0 .007-2.954zM13.009 17.35a4.337 4.337 0 0 1-4.332-4.333 4.337 4.337 0 0 1 4.332-4.332 4.337 4.337 0 0 1 4.333 4.332 4.337 4.337 0 0 1-4.333 4.333z"/>
</svg>
