<svg viewBox="0 0 27 16" xmlns="http://www.w3.org/2000/svg">
    <path d="M26.52.83l-6.21 3.437c-.09.059-.18.177-.18.266V2.844C20.13 1.274 18.84 0 17.25 0H2.88C1.29 0 0 1.274 0 2.844v10.134c0 1.57 1.29 2.844 2.88 2.844h14.37c1.59 0 2.88-1.274 2.88-2.844V11.11c0 .119.06.237.18.267l6.21 3.466c.21.119.48-.03.48-.266V1.096c0-.237-.27-.385-.48-.266zM13.65 8.267l-6.33 3.97c-.21.148-.51-.03-.51-.267l.06-8.059c0-.267.3-.415.51-.267l6.3 4.09c.18.118.18.414-.03.533z" />
</svg>
